{
  "users": [
    {
      "name": "John",
      "surname": "Smith",
      "email": "mail@mail.com",
      "phone": "0123456789",
      "password": "96e79218965eb72c92a549dd5a330112",
      "id": 1
    },
    {
      "name": "Daniel",
      "surname": "Brown",
      "email": "mail2@mail.com",
      "phone": "0123456789",
      "password": "96e79218965eb72c92a549dd5a330112",
      "id": 2
    }
  ],
  "categories": [
    {
      "id": 1,
      "name": "one"
    },
    {
      "id": 2,
      "name": "two"
    },
    {
      "id": 3,
      "name": "three"
    },
    {
      "id": 4,
      "name": "four"
    }
  ],
  "objects": [
    {
      "category": 4,
      "description": "description",
      "area": 1,
      "price": 2,
      "date": "24.01.2018",
      "user": 1,
      "id": 1
    },
    {
      "category": 2,
      "description": "description",
      "area": 2,
      "price": 3,
      "date": "01.02.2018",
      "user": 1,
      "id": 2
    },
    {
      "category": 4,
      "description": "description",
      "area": 3,
      "price": 4,
      "date": "01.02.2018",
      "user": 2,
      "id": 3
    },
    {
      "category": 2,
      "description": "description",
      "area": 5,
      "price": 6,
      "date": "01.02.2018",
      "user": 1,
      "id": 4
    },
    {
      "category": 3,
      "description": "description",
      "area": 7,
      "price": 8,
      "date": "01.02.2018",
      "user": 1,
      "id": 5
    },
    {
      "category": 1,
      "description": "description",
      "area": 8,
      "price": 9,
      "date": "01.02.2018",
      "user": 1,
      "id": 6
    }
  ]
}